.#.#.#.#.#.#.#.#.#.#.#.#.#.#.#.#.
*ooo|o|ooooooo|ooooo|o|ooo|o|ooo*
.o.o.o.o.o.-.-.o.-.-.o.o.-.o.o.-.
*o|ooooo|ooooooooooo|ooo|o|ooooo*
.-.o.-.-.o.-.-.o.o.-.o.-.o.o.-.-.
*o|o|o|o|ooooo|o|ooo|o|ooooooooo*
.o.o.o.o.-.-.o.o.-.-.o.o.-.-.o.-.
*ooooooooooo|o|ooooooooooooo|o|o*
.o.o.o.-.-.-.o.-.-.o.-.-.-.-.-.o.
*o|o|ooooooo|o|ooo|o|ooooooooooo*
.o.o.-.-.-.o.-.o.-.o.o.-.-.-.-.-.
*o|ooo|o|ooooooooo|ooooooo|ooooo*
.o.o.o.o.o.o.-.o.-.o.-.-.-.o.-.-.
*o|o|ooo|o|ooo|ooo|ooooo|ooooo|o*
.o.o.-.o.-.o.-.-.-.o.-.-.o.o.-.o.
*o|ooo|o|ooooo|ooo|ooooooo|o|ooo*
.o.o.-.-.-.o.-.ooo.o.-.o.o.-.o.-.
*o|o|ooooooooo|ooo|o|ooo|ooo|ooo*
.-.-.-.o.o.-.o.-.o.-.-.-.o.o.o.-.
*ooooooo|o|ooooooo|ooo|ooo|ooooo*
.-.o.o.-.o.o.-.-.-.o.-.-.o.-.o.o.
*ooo|o|ooo|ooooooo|ooooo|ooo|o|o*
.-.o.o.o.-.o.-.o.o.o.o.-.o.-.-.o.
*ooo|o|o|ooooo|o|ooo|o|ooooooo|o*
.-.o.o.o.o.-.o.o.o.o.-.-.-.o.o.o.
*ooo|o|o|ooo|o|o|o|ooooooo|o|o|o*
.o.-.-.o.o.o.-.-.o.o.-.o.-.o.-.o.
*ooo|ooo|o|o|ooooo|o|ooooo|ooo|o*
.o.-.o.o.o.o.o.o.o.o.-.o.-.o.-.o.
*o|ooo|o|o|o|o|o|o|ooo|ooo|o|o|o*
.-.o.-.o.-.-.o.-.o.o.-.o.-.o.o.o.
*ooooo|o|ooooo|ooo|o|ooooo|ooo|o*
.#.#.#.#.#.#.#.#.#.#.#.#.#.#.#.#.