0e0a 0a0a 0a0a 0a0a 0a0a 0a0a 0a0a 0a09
0c0a 0a0a 090c 090c 0a08 0a08 080a 0905
050e 0809 0601 0403 0c02 0803 0608 0305
0409 0506 0906 030c 010c 020b 0c02 0905
0505 0609 0609 0c03 0706 0a09 0608 0305
0504 0906 0906 030d 0d0c 0a03 0c02 0905
0505 050c 020a 0800 0306 0a09 0608 0305
0505 0602 0808 0304 090c 0a03 0e02 0905
0506 090c 0306 0802 0306 0a0a 0a09 0505
0409 0603 0c09 070c 080a 090c 0906 0105
0506 0a09 0506 0905 0608 0201 0609 0505
050c 0a03 0609 0506 0906 0802 0906 0305
0506 0a0a 0a03 060a 020b 0608 0209 0d05
060a 0a0a 0a0a 0a0a 0a09 0e02 0802 0105
0c0a 0a0a 0a0a 0a0a 0a03 0c09 0608 0201
060a 0a0a 0a0a 0a0a 0a0a 0306 0a02 0a03
